<?xml version="1.0" encoding="UTF-8" standalone="no"?>
<!-- Created with Inkscape (http://www.inkscape.org/) -->

<svg
   xmlns:dc="http://purl.org/dc/elements/1.1/"
   xmlns:cc="http://creativecommons.org/ns#"
   xmlns:rdf="http://www.w3.org/1999/02/22-rdf-syntax-ns#"
   xmlns:svg="http://www.w3.org/2000/svg"
   xmlns="http://www.w3.org/2000/svg"
   xmlns:sodipodi="http://sodipodi.sourceforge.net/DTD/sodipodi-0.dtd"
   xmlns:inkscape="http://www.inkscape.org/namespaces/inkscape"
   width="125.52907mm"
   height="106.6234mm"
   viewBox="0 0 125.52907 106.6234"
   version="1.1"
   id="svg5820"
   inkscape:version="0.92.4 (5da689c313, 2019-01-14)"
   sodipodi:docname="floatee.svg">
  <defs
     id="defs5814" />
  <sodipodi:namedview
     id="base"
     pagecolor="#ffffff"
     bordercolor="#666666"
     borderopacity="1.0"
     inkscape:pageopacity="0.0"
     inkscape:pageshadow="2"
     inkscape:zoom="0.35"
     inkscape:cx="1680.9349"
     inkscape:cy="543.50703"
     inkscape:document-units="mm"
     inkscape:current-layer="layer1"
     showgrid="false"
     inkscape:window-width="2560"
     inkscape:window-height="1029"
     inkscape:window-x="0"
     inkscape:window-y="675"
     inkscape:window-maximized="1"
     fit-margin-top="0"
     fit-margin-left="0"
     fit-margin-right="0"
     fit-margin-bottom="0" />
  <metadata
     id="metadata5817">
    <rdf:RDF>
      <cc:Work
         rdf:about="">
        <dc:format>image/svg+xml</dc:format>
        <dc:type
           rdf:resource="http://purl.org/dc/dcmitype/StillImage" />
        <dc:title></dc:title>
      </cc:Work>
    </rdf:RDF>
  </metadata>
  <g
     inkscape:label="Layer 1"
     inkscape:groupmode="layer"
     id="layer1"
     transform="translate(-40.04499,-82.670446)">
    <path
       d="m 92.781617,141.70295 c 3.21204,7.47924 1.44674,14.95742 1.44674,14.95742 -3.84387,1.651 -9.56381,-3.0741 -12.7762,-10.5537 -3.21169,-7.47924 -2.69981,-14.88087 1.14441,-16.53152 3.84387,-1.651 6.97265,4.6482 10.18505,12.1278"
       style="fill:#ea6b52;fill-opacity:1;fill-rule:nonzero;stroke:none;stroke-width:0.03527778"
       id="path878"
       inkscape:connector-curvature="0" />
    <path
       d="m 100.01391,143.55609 c 0.56515,8.98419 -2.376663,16.13147 -2.376663,16.13147 -4.0774,0.93627 -8.85931,-4.73604 -10.68105,-12.66966 -1.82139,-7.93362 0.007,-15.12394 4.08446,-16.06021 4.0774,-0.93627 8.46137,4.47463 8.973253,12.5984"
       style="fill:#ea9b52;fill-opacity:1;fill-rule:nonzero;stroke:none;stroke-width:0.03527778"
       id="path880"
       inkscape:connector-curvature="0" />
    <path
       d="m 100.02132,143.67886 c -2.6e-4,-0.005 -7.9e-4,-0.01 -0.001,-0.0145 2.7e-4,0.005 8e-4,0.01 0.001,0.0141 v 2.6e-4 m -0.001,-0.0215 c -2.6e-4,-0.006 -7.9e-4,-0.0134 -0.001,-0.0194 2.7e-4,0.007 8e-4,0.0127 0.001,0.0194 m -0.002,-0.0289 c -2.6e-4,-0.006 -7.9e-4,-0.0113 -0.001,-0.0173 2.7e-4,0.006 8e-4,0.0116 0.001,0.0173 m -0.002,-0.031 c -2.6e-4,-0.004 -7.9e-4,-0.009 -7.9e-4,-0.0134 0,0.004 2.6e-4,0.009 7.9e-4,0.0134 m -10.706733,-11.7722 v 0 c 0.18909,-0.70061 1.65065,-0.84913 1.73108,-0.86747 -0.63288,0.14534 -1.21179,0.44132 -1.73108,0.86747"
       style="fill:#ffffff;fill-opacity:1;fill-rule:nonzero;stroke:none;stroke-width:0.03527778"
       id="path882"
       inkscape:connector-curvature="0" />
    <path
       d="m 95.809169,150.17346 c -2.340682,-11.28395 -4.014972,-15.61183 -5.239112,-16.56433 -0.19014,-0.14817 -1.45591,-1.0601 -1.26047,-1.784 0.51929,-0.42615 1.0982,-0.72214 1.73108,-0.86748 v 0 c 0.30727,-0.0706 0.61666,-0.10513 0.92534,-0.10513 3.791302,0 7.574842,5.19148 8.047913,12.70353 2.7e-4,0.01 0.001,0.0183 0.002,0.0279 0,0.004 2.7e-4,0.009 8e-4,0.0134 2.6e-4,0.005 7.9e-4,0.009 7.9e-4,0.0138 2.7e-4,0.006 7.9e-4,0.0113 0.001,0.0173 2.7e-4,0.003 2.7e-4,0.006 8e-4,0.01 2.6e-4,0.006 7.9e-4,0.0134 10e-4,0.0194 2.6e-4,0.002 2.6e-4,0.005 2.6e-4,0.007 2.6e-4,0.005 7.9e-4,0.009 10e-4,0.0145 -1.870781,1.47496 -2.771771,3.93841 -3.046231,5.85717 -0.0261,-0.001 -0.0515,-0.002 -0.0769,-0.002 -0.50342,0 -0.87489,0.23495 -1.08903,0.63923"
       style="fill:#edae31;fill-opacity:1;fill-rule:nonzero;stroke:none;stroke-width:0.03527778"
       id="path884"
       inkscape:connector-curvature="0" />
    <path
       d="m 94.716597,152.03087 c -0.003,0 -0.005,0 -0.008,0 0.0441,-2.79894 -0.31044,-6.54191 -1.90994,-10.2877 -2.6e-4,0 -2.6e-4,-8e-4 -2.6e-4,-8e-4 -0.006,-0.0134 -0.0113,-0.0265 -0.0169,-0.0395 -1.4665,-3.41489 -2.91536,-6.58319 -4.42313,-8.86142 0.16686,-0.22437 0.3429,-0.43216 0.52776,-0.6216 1.55998,2.38548 2.97991,5.9302 4.40584,9.77653 1.35925,3.66678 1.57092,7.27499 1.42451,10.03441"
       style="fill:#ed6f1a;fill-opacity:1;fill-rule:nonzero;stroke:none;stroke-width:0.03527778"
       id="path886"
       inkscape:connector-curvature="0" />
    <path
       d="m 92.781617,141.70295 c 3.21204,7.47924 1.44674,14.95742 1.44674,14.95742 -3.84387,1.651 -9.56381,-3.0741 -12.7762,-10.5537 -3.21169,-7.47924 -2.69981,-14.88087 1.14441,-16.53152 3.84387,-1.651 6.97265,4.6482 10.18505,12.1278"
       style="fill:#ed801a;fill-opacity:1;fill-rule:nonzero;stroke:none;stroke-width:0.03527778"
       id="path888"
       inkscape:connector-curvature="0" />
    <path
       d="m 92.798897,141.74317 c -2.6e-4,-2.7e-4 -2.6e-4,-2.7e-4 -2.6e-4,-8e-4 0,0 0,8e-4 2.6e-4,8e-4"
       style="fill:#d17462;fill-opacity:1;fill-rule:nonzero;stroke:none;stroke-width:0.03527778"
       id="path890"
       inkscape:connector-curvature="0" />
    <path
       d="m 94.608297,151.62306 c -0.51294,0 -2.89842,-6.20219 -5.95489,-12.2615 -1.93393,-3.83434 -4.7498,-7.45031 -6.05684,-9.78641 0.4184,-0.17991 0.82868,-0.26528 1.23084,-0.26528 3.29565,0 6.09142,5.7277 8.95421,12.39308 0.006,0.013 0.0113,0.0261 0.0169,0.0395 0,2.6e-4 0,2.6e-4 2.6e-4,7.9e-4 1.45698,3.41242 1.88101,6.82131 1.91135,9.5176 0.003,0.24694 -0.0321,0.3623 -0.10195,0.3623"
       style="fill:#edae31;fill-opacity:1;fill-rule:nonzero;stroke:none;stroke-width:0.03527778"
       id="path892"
       inkscape:connector-curvature="0" />
    <path
       d="m 87.746417,148.87527 c -0.008,-1.2065 -0.0938,-2.55129 -0.31397,-3.97227 -10e-4,-0.008 -0.002,-0.0173 -0.004,-0.0261 -0.0497,-0.31715 -0.10583,-0.63818 -0.16933,-0.96203 -0.28258,-1.44039 -0.70979,-2.94322 -1.33633,-4.44747 -1.47672,-3.54612 -2.93828,-6.82907 -4.47569,-9.13871 0.2092,-0.19226 0.43357,-0.36089 0.6731,-0.50482 1.55187,2.41194 2.93547,6.03532 4.31977,9.97338 1.14864,3.26672 1.39841,6.47276 1.30633,9.07803"
       style="fill:#ed6f1a;fill-opacity:1;fill-rule:nonzero;stroke:none;stroke-width:0.03527778"
       id="path894"
       inkscape:connector-curvature="0" />
    <path
       d="m 85.922907,139.4674 c 3.12985,7.51416 1.2827,14.97259 1.2827,14.97259 -3.8615,1.60867 -9.52958,-3.17888 -12.65943,-10.6934 -3.12949,-7.51417 -2.53612,-14.90945 1.32574,-16.51811 3.86151,-1.60832 6.9215,4.72475 10.05099,12.23892"
       style="fill:#ed801a;fill-opacity:1;fill-rule:nonzero;stroke:none;stroke-width:0.03527778"
       id="path896"
       inkscape:connector-curvature="0" />
    <path
       d="m 87.432447,144.903 c -0.0505,-0.32597 -0.10795,-0.65511 -0.17322,-0.98813 0.0635,0.32385 0.1196,0.64487 0.16934,0.96202 0.001,0.009 0.002,0.0176 0.004,0.0261"
       style="fill:#d17462;fill-opacity:1;fill-rule:nonzero;stroke:none;stroke-width:0.03527778"
       id="path898"
       inkscape:connector-curvature="0" />
    <path
       d="m 74.107677,128.62548 v 0 c 0.46743,-0.61384 1.03681,-1.08127 1.70709,-1.37266 -0.66992,0.29139 -1.23966,0.75918 -1.70709,1.37266 m 1.70885,-1.37337 c 0.009,-0.004 0.0187,-0.008 0.0279,-0.012 -0.009,0.004 -0.0187,0.008 -0.0279,0.012 m 0.0356,-0.0152 c 0.002,-10e-4 0.004,-0.002 0.006,-0.002 -0.002,8e-4 -0.004,0.001 -0.006,0.002"
       style="fill:#ffffff;fill-opacity:1;fill-rule:nonzero;stroke:none;stroke-width:0.03527778"
       id="path900"
       inkscape:connector-curvature="0" />
    <path
       d="m 87.088137,145.86043 c -2.13149,0 -12.60369,-13.92978 -12.98046,-17.23495 0.46743,-0.61348 1.03717,-1.08127 1.70709,-1.37266 2.6e-4,0 10e-4,-2.7e-4 0.002,-8e-4 0.009,-0.004 0.0183,-0.008 0.0279,-0.012 0.003,-0.001 0.005,-0.002 0.008,-0.003 0.002,-0.001 0.004,-0.002 0.006,-0.002 0.005,-0.002 0.009,-0.004 0.0138,-0.006 0.40922,-0.17039 0.81033,-0.25188 1.20262,-0.25188 3.30906,0 6.05085,5.77321 8.84837,12.4908 0.62654,1.5046 1.05375,3.00673 1.33633,4.44747 0.0653,0.33302 0.12276,0.66217 0.17321,0.98813 0.0991,0.66358 -0.0346,0.95744 -0.34431,0.95744"
       style="fill:#edae31;fill-opacity:1;fill-rule:nonzero;stroke:none;stroke-width:0.03527778"
       id="path902"
       inkscape:connector-curvature="0" />
    <path
       d="m 77.522917,137.55005 c 3.46922,7.36353 1.96356,14.89851 1.96356,14.89851 -3.78425,1.78259 -9.66435,-2.74179 -13.13321,-10.10532 -3.46957,-7.36388 -3.21345,-14.77857 0.57115,-16.56151 3.78425,-1.78293 7.12964,4.40444 10.5985,11.76832"
       style="fill:#ea6b52;fill-opacity:1;fill-rule:nonzero;stroke:none;stroke-width:0.03527778"
       id="path904"
       inkscape:connector-curvature="0" />
    <path
       d="m 70.665267,139.3277 c 4.08693,7.7851 2.7679,16.01046 2.7679,16.01046 -4.04284,2.12196 -10.63308,-2.46838 -14.72001,-10.25384 -4.086574,-7.7851 -4.121852,-15.81644 -0.079,-17.93839 4.04284,-2.12231 7.94456,4.39667 12.03114,12.18177"
       style="fill:#ea6b52;fill-opacity:1;fill-rule:nonzero;stroke:none;stroke-width:0.03527778"
       id="path906"
       inkscape:connector-curvature="0" />
    <path
       d="m 79.728837,151.7176 v 0 c -0.0378,-0.037 -0.0759,-0.0748 -0.11324,-0.11253 v 0 c 0.0378,0.0378 0.0755,0.0755 0.11324,0.11253"
       style="fill:#dbdbdb;fill-opacity:1;fill-rule:nonzero;stroke:none;stroke-width:0.03527778"
       id="path908"
       inkscape:connector-curvature="0" />
    <path
       d="m 79.752477,151.71831 c -0.008,-2.6e-4 -0.0155,-2.6e-4 -0.0236,-7.9e-4 -0.0377,-0.037 -0.0755,-0.0748 -0.11325,-0.11254 0.0907,-0.71649 0.19615,-1.85314 0.19615,-3.26672 -2.7e-4,-2.85785 -0.43215,-6.84777 -2.28883,-10.7883 -1.37301,-2.91465 -2.72661,-5.64515 -4.09575,-7.76993 0.0882,-0.19156 0.1831,-0.37536 0.28434,-0.55068 1.44816,2.23167 2.85504,5.23381 4.27955,8.4589 2.60456,5.89492 2.0895,11.817 1.76142,14.02997"
       style="fill:#ed6f1a;fill-opacity:1;fill-rule:nonzero;stroke:none;stroke-width:0.03527778"
       id="path910"
       inkscape:connector-curvature="0" />
    <path
       d="m 77.522917,137.55005 c 3.46922,7.36353 1.96356,14.89851 1.96356,14.89851 -3.78425,1.78259 -9.66435,-2.74179 -13.13321,-10.10532 -3.46957,-7.36388 -3.21345,-14.77857 0.57115,-16.56151 3.78425,-1.78293 7.12964,4.40444 10.5985,11.76832"
       style="fill:#ed801a;fill-opacity:1;fill-rule:nonzero;stroke:none;stroke-width:0.03527778"
       id="path912"
       inkscape:connector-curvature="0" />
    <path
       d="m 77.627337,139.36156 c -2.17946,0 -13.83065,-12.10627 -10.70292,-13.57983 0.44556,-0.2099 0.88512,-0.30938 1.31939,-0.30938 3.25472,0 6.21841,5.58094 9.27911,12.0777 0.60184,1.27776 0.56198,1.81151 0.10442,1.81151"
       style="fill:#edae31;fill-opacity:1;fill-rule:nonzero;stroke:none;stroke-width:0.03527778"
       id="path914"
       inkscape:connector-curvature="0" />
    <path
       d="m 73.743967,151.48795 c -0.0385,-0.0243 -0.0766,-0.049 -0.11501,-0.0741 -0.067,-3.11327 -0.64558,-7.66057 -2.95416,-12.06818 -0.003,-0.006 -0.006,-0.012 -0.01,-0.018 v 0 0 c -0.0208,-0.0399 -0.0416,-0.079 -0.0624,-0.11889 -2.12266,-4.03895 -4.19523,-7.72512 -6.26463,-10.02488 0.0674,-0.22966 0.14288,-0.4512 0.22613,-0.66393 2.22321,2.3054 4.38715,6.44208 6.59906,11.00208 2.12831,4.38644 2.59045,8.85437 2.58057,11.96587"
       style="fill:#ed6f1a;fill-opacity:1;fill-rule:nonzero;stroke:none;stroke-width:0.03527778"
       id="path916"
       inkscape:connector-curvature="0" />
    <path
       d="m 70.665267,139.3277 c 4.08693,7.7851 2.7679,16.01046 2.7679,16.01046 -4.04284,2.12196 -10.63308,-2.46838 -14.72001,-10.25384 -4.086574,-7.7851 -4.121852,-15.81644 -0.079,-17.93839 4.04284,-2.12231 7.94456,4.39667 12.03114,12.18177"
       style="fill:#ed801a;fill-opacity:1;fill-rule:nonzero;stroke:none;stroke-width:0.03527778"
       id="path918"
       inkscape:connector-curvature="0" />
    <path
       d="m 70.674797,139.34569 c -0.003,-0.006 -0.006,-0.0116 -0.01,-0.018 0.003,0.006 0.006,0.012 0.01,0.018 m -0.01,-0.018 c -0.0208,-0.0399 -0.0416,-0.079 -0.0624,-0.11889 0.0208,0.0399 0.0416,0.079 0.0624,0.11889"
       style="fill:#d17462;fill-opacity:1;fill-rule:nonzero;stroke:none;stroke-width:0.03527778"
       id="path920"
       inkscape:connector-curvature="0" />
    <path
       d="m 62.558787,127.57279 c -0.78246,-0.53622 -1.56668,-0.83256 -2.35444,-0.83256 -0.5214,0 -1.04492,0.12982 -1.57021,0.4057 0.52564,-0.27623 1.04881,-0.40605 1.57021,-0.40605 0.78776,0 1.57198,0.29633 2.35444,0.83291"
       style="fill:#ffffff;fill-opacity:1;fill-rule:nonzero;stroke:none;stroke-width:0.03527778"
       id="path922"
       inkscape:connector-curvature="0" />
    <path
       d="m 58.544887,127.1939 c 0.0378,-0.0219 0.0691,-0.0377 0.0893,-0.048 -0.03,0.0155 -0.0596,0.0317 -0.0893,0.048"
       style="fill:#ffffff;fill-opacity:1;fill-rule:nonzero;stroke:none;stroke-width:0.03527778"
       id="path924"
       inkscape:connector-curvature="0" />
    <path
       d="m 71.148227,140.78326 c -0.4371,0 -2.71886,-4.42913 -7.46831,-8.18057 -2.83069,-2.23555 -5.92596,-3.7472 -5.57036,-4.91666 0.078,-0.25753 0.2988,-0.41346 0.43533,-0.49213 0.0296,-0.0162 0.0593,-0.0324 0.0893,-0.048 v 0 0 c 0.52528,-0.27587 1.04881,-0.40569 1.57021,-0.40569 0.78776,0 1.57198,0.29633 2.35444,0.83255 2.66418,1.82669 5.31319,6.44032 8.04404,11.63603 0.0208,0.0399 0.0416,0.079 0.0624,0.11888 v 0 0 c 0.003,0.006 0.006,0.012 0.01,0.018 0.21625,0.41346 0.65969,1.32116 0.50377,1.4284 -0.009,0.006 -0.019,0.009 -0.0303,0.009"
       style="fill:#edae31;fill-opacity:1;fill-rule:nonzero;stroke:none;stroke-width:0.03527778"
       id="path926"
       inkscape:connector-curvature="0" />
    <path
       d="m 71.707727,151.42339 c -0.078,-0.003 -0.15593,-0.007 -0.23389,-0.01 -0.33549,-1.72932 -0.90558,-3.53484 -1.82562,-5.28814 -3.20428,-6.10376 -6.34118,-11.33687 -10.00902,-11.33687 -0.65898,0 -1.33561,0.16898 -2.0327,0.53234 -0.005,0.002 -0.009,0.005 -0.0134,0.007 v 0 c -0.003,0.002 -0.006,0.003 -0.008,0.005 -0.14182,0.0713 -0.23107,0.12489 -0.2734,0.15311 -0.54787,0.32597 -1.0347,0.73272 -1.46015,1.20897 -0.0667,-0.43251 -0.11853,-0.8576 -0.15522,-1.27388 0.53022,-0.63818 1.1624,-1.16417 1.89724,-1.54976 0.70202,-0.36865 1.38253,-0.53975 2.04611,-0.53975 3.66748,0 6.80508,5.23382 10.00901,11.33687 1.18428,2.25672 1.78858,4.60022 2.05952,6.75534"
       style="fill:#ed6f1a;fill-opacity:1;fill-rule:nonzero;stroke:none;stroke-width:0.03527778"
       id="path928"
       inkscape:connector-curvature="0" />
    <path
       d="m 69.648217,146.12537 c 3.78283,7.20725 1.6457,15.30279 1.6457,15.30279 -4.58152,2.40489 -11.36226,-1.48836 -15.14545,-8.69597 -3.78319,-7.20725 -3.136548,-14.99905 1.44462,-17.40429 4.58082,-2.40453 8.27158,3.58987 12.05513,10.79747"
       style="fill:#ed801a;fill-opacity:1;fill-rule:nonzero;stroke:none;stroke-width:0.03527778"
       id="path930"
       inkscape:connector-curvature="0" />
    <path
       d="m 55.452087,151.28827 c -0.986018,-2.23908 -1.553285,-4.49615 -1.716974,-6.59588 -3.43e-4,-0.005 -7.14e-4,-0.0102 -0.0011,-0.0159 0.161925,2.10432 0.729897,4.36703 1.718024,6.61176 v 0"
       style="fill:#dbdbdb;fill-opacity:1;fill-rule:nonzero;stroke:none;stroke-width:0.03527778"
       id="path932"
       inkscape:connector-curvature="0" />
    <path
       d="m 55.452087,151.28827 c -0.988135,-2.24472 -1.556107,-4.50744 -1.718032,-6.61176 -0.01023,-0.14252 -0.01164,-0.39334 0.136525,-0.49212 0.04128,-0.0275 0.09137,-0.0409 0.149225,-0.0409 0.929212,0 3.900662,3.47062 6.847062,6.74158 -0.42757,-0.0243 -0.85548,-0.049 -1.28164,-0.0741 -1.4224,0 -2.80599,0.1651 -4.13314,0.47731"
       style="fill:#ed6f1a;fill-opacity:1;fill-rule:nonzero;stroke:none;stroke-width:0.03527778"
       id="path934"
       inkscape:connector-curvature="0" />
    <path
       d="m 57.311217,135.48559 c 0.0423,-0.0282 0.13159,-0.0818 0.27341,-0.1531 -0.0928,0.049 -0.1838,0.0998 -0.27341,0.1531 m 0.28187,-0.15769 c 0.005,-0.002 0.009,-0.005 0.0134,-0.007 -0.004,0.002 -0.009,0.005 -0.0134,0.007"
       style="fill:#d17462;fill-opacity:1;fill-rule:nonzero;stroke:none;stroke-width:0.03527778"
       id="path936"
       inkscape:connector-curvature="0" />
    <path
       d="m 71.473837,151.41351 c -0.16581,-0.007 -0.33126,-0.0141 -0.49671,-0.0215 -0.0473,-0.17816 -0.097,-0.35807 -0.14958,-0.53869 -1.56422,-5.37704 -4.73886,-8.72455 -6.24558,-10.13143 -1.12677,-1.24389 -2.21015,-2.07927 -3.05293,-2.63701 -1.60514,-1.06222 -4.318,-2.42888 -4.24745,-2.57704 7.2e-4,-0.002 0.0106,-0.01 0.0296,-0.0222 0.0896,-0.0533 0.18062,-0.10407 0.2734,-0.15311 0.002,-0.001 0.004,-0.002 0.006,-0.003 l 0.002,-0.001 v 0 c 0.004,-0.002 0.009,-0.005 0.0134,-0.007 0.28187,-0.14675 0.55986,-0.26176 0.83538,-0.34678 0.4057,-0.12559 0.80469,-0.18556 1.19768,-0.18556 0.14852,0 0.29598,0.008 0.44274,0.0254 0.26776,0.0311 0.53269,0.0893 0.79481,0.17321 0.13123,0.042 0.26176,0.0907 0.39193,0.14535 0.12982,0.0547 0.25894,0.11571 0.3877,0.18238 0.77294,0.40217 1.52471,1.02024 2.26272,1.80728 0.12312,0.13124 0.24553,0.26706 0.36795,0.40746 1.83374,2.10538 3.58704,5.21688 5.36081,8.59578 0.0586,0.11219 0.11677,0.22508 0.17286,0.33797 0.11218,0.22648 0.21907,0.45296 0.32067,0.68015 0.1524,0.34114 0.2921,0.68263 0.42051,1.02482 0.41029,1.09044 0.70521,2.18229 0.91158,3.2452"
       style="fill:#ed801a;fill-opacity:1;fill-rule:nonzero;stroke:none;stroke-width:0.03527778"
       id="path938"
       inkscape:connector-curvature="0" />
    <path
       d="m 139.6933,110.95696 c 0.0554,0.3623 -0.38876,0.58314 -0.64523,0.32102 -0.75283,-0.76941 -1.60514,-1.7974 -2.37102,-3.11538 -1.06398,-1.83197 -1.55893,-3.53095 -1.8041,-4.70076 l 5.45676,-1.34797 c -0.35701,1.17722 -0.70132,2.6984 -0.82021,4.49157 -0.11148,1.66441 -2.6e-4,3.13831 0.1838,4.35152"
       style="fill:#85c5bd;fill-opacity:1;fill-rule:nonzero;stroke:none;stroke-width:0.03527778"
       id="path940"
       inkscape:connector-curvature="0" />
    <path
       d="m 139.68907,110.92838 c -0.13159,-0.87489 -0.22472,-1.88419 -0.22402,-3.00179 -7.9e-4,1.1176 0.0924,2.1269 0.22402,3.00179"
       style="fill:#ffffff;fill-opacity:1;fill-rule:nonzero;stroke:none;stroke-width:0.03527778"
       id="path942"
       inkscape:connector-curvature="0" />
    <path
       d="m 139.69224,110.95942 c -0.0455,0 -1.56245,-1.70709 -2.28776,-3.51049 -0.23389,-0.58137 -0.54152,-1.56245 -0.54892,-2.91465 0.009,0 0.019,0 0.0286,0 v 0 0 c 0.007,0 0.0145,0 0.0215,0 0.002,0 0.005,0 0.007,0 0.005,0 0.0102,0 0.0155,0 0.002,0 0.005,0 0.007,0 0.006,0 0.0127,-3.4e-4 0.019,-3.4e-4 7.9e-4,0 0.001,0 0.002,0 0.007,0 0.0145,0 0.0215,-3.4e-4 0.002,0 0.004,0 0.006,0 0.005,0 0.0106,0 0.0159,-3.5e-4 0.002,0 0.005,0 0.007,0 0.006,0 0.0116,-3.4e-4 0.0177,-3.4e-4 0.001,0 0.003,0 0.004,0 0.007,-3.5e-4 0.0145,-3.5e-4 0.0219,-7.2e-4 0.002,0 0.004,0 0.006,0 0.006,-3.4e-4 0.0106,-3.4e-4 0.0162,-7.1e-4 0.002,0 0.005,0 0.007,0 0.006,-3.5e-4 0.0113,-3.5e-4 0.0169,-7.2e-4 0.001,0 0.003,0 0.005,0 0.007,-3.4e-4 0.0148,-7.1e-4 0.0222,-7.1e-4 0.001,-3.4e-4 0.002,-3.4e-4 0.003,-3.4e-4 0.006,0 0.013,-3.5e-4 0.0194,-7.2e-4 0.002,0 0.004,0 0.006,-3.4e-4 0.006,0 0.012,-3.5e-4 0.018,-7.2e-4 0.001,0 0.003,0 0.004,0 0.0148,-7.1e-4 0.03,-0.001 0.0452,-0.002 10e-4,0 0.003,0 0.005,0 0.006,-3.4e-4 0.0124,-7.1e-4 0.0183,-0.001 0.001,0 0.003,-3.4e-4 0.004,-3.4e-4 0.0155,-7.2e-4 0.0303,-0.002 0.0455,-0.003 10e-4,0 0.002,0 0.004,0 0.007,-7.1e-4 0.013,-0.001 0.0198,-0.001 0.001,0 0.002,0 0.004,-3.4e-4 0.0155,-0.001 0.031,-0.002 0.0466,-0.003 2.6e-4,0 7.9e-4,0 10e-4,0 0.007,-7.2e-4 0.0148,-0.001 0.0222,-0.002 7.9e-4,0 10e-4,0 0.002,-3.5e-4 0.0236,-0.002 0.0469,-0.004 0.0705,-0.006 7.9e-4,0 0.001,0 0.002,0 0.81915,-0.0737 1.65241,-0.30233 2.42852,-0.67733 -0.17357,0.82867 -0.31362,1.75789 -0.381,2.7746 v 0 c -0.0303,0.45508 -0.0445,0.89605 -0.0445,1.32115 -8e-4,1.1176 0.0924,2.1269 0.22401,3.00179 0.001,0.01 0.003,0.0191 0.004,0.0286 l -2.6e-4,0.002 c 0,0 -2.7e-4,0 -8e-4,0"
       style="fill:#97cec7;fill-opacity:1;fill-rule:nonzero;stroke:none;stroke-width:0.03527778"
       id="path944"
       inkscape:connector-curvature="0" />
    <path
       d="m 143.54598,98.080918 c 0,4.139142 -3.55741,6.453362 -6.66185,6.453362 -3.10409,0 -5.62081,-3.35527 -5.62081,-7.494412 0,-4.13914 2.51672,-7.49441 5.62081,-7.49441 3.10444,0 6.66185,4.39632 6.66185,8.53546"
       style="fill:#ed801a;fill-opacity:1;fill-rule:nonzero;stroke:none;stroke-width:0.03527778"
       id="path946"
       inkscape:connector-curvature="0" />
    <path
       d="m 140.30925,90.319098 c -0.62865,-1.18004 -1.99355,-3.35915 -4.55718,-5.12092 -3.43006,-2.35797 -6.85977,-2.49237 -8.02817,-2.52271 -5.4109,-0.13935 -9.15952,2.65959 -10.37731,3.59692 -0.20461,0.15769 -2.35867,1.78647 -3.79694,4.04671 -3.53449,5.55378 -1.16135,16.434162 6.7698,33.494842 2.4758,5.32518 4.78755,10.2616 1.81363,12.08158 -5.55413,3.39901 0.23672,20.88797 3.65266,22.24158 3.41595,1.35361 10.48456,2.36079 14.52351,-1.6771 4.0393,-4.0379 10.09826,-13.86523 4.0393,-20.56448 -6.0586,-6.6989 -11.33686,-14.27268 -15.26151,-19.82646 -3.92466,-5.55378 -10.99326,-18.176522 -4.42948,-23.225482 6.56378,-5.04931 7.57343,3.53413 7.57343,3.53413 0,0 10.98938,2.8889 10.61931,-1.16487 -0.13687,-1.5039 -2.54105,-4.89374 -2.54105,-4.89374"
       style="fill:#ea9b52;fill-opacity:1;fill-rule:nonzero;stroke:none;stroke-width:0.03527778"
       id="path948"
       inkscape:connector-curvature="0" />
    <path
       d="m 120.61473,137.64495 v 0 c 0.33513,-0.69145 0.78704,-1.2566 1.37407,-1.65594 -0.58667,0.39934 -1.03894,0.96449 -1.37407,1.65594 m 1.37512,-1.657 c 0.005,-0.003 0.01,-0.006 0.0145,-0.01 -0.005,0.003 -0.01,0.006 -0.0145,0.01 m 0.0159,-0.0106 c 0.005,-0.003 0.009,-0.006 0.0138,-0.009 -0.005,0.003 -0.009,0.006 -0.0138,0.009 m 0.0162,-0.0109 c 0.004,-0.003 0.009,-0.006 0.0127,-0.008 -0.004,0.003 -0.008,0.006 -0.0127,0.008 m 0.0159,-0.0102 c 0.004,-0.003 0.008,-0.006 0.0127,-0.008 -0.005,0.003 -0.008,0.006 -0.0127,0.008 m 0.0155,-0.0106 c 0.004,-0.002 0.009,-0.005 0.013,-0.008 -0.005,0.003 -0.008,0.006 -0.013,0.008 m 0.0159,-0.01 c 0.004,-0.003 0.008,-0.006 0.0124,-0.008 -0.004,0.002 -0.008,0.005 -0.0124,0.008 m 0.0162,-0.0102 c 0.004,-0.003 0.008,-0.005 0.0124,-0.008 -0.004,0.002 -0.008,0.005 -0.0124,0.008 m 0.0159,-0.0102 c 0.004,-0.002 0.008,-0.005 0.0127,-0.008 -0.004,0.002 -0.009,0.005 -0.0127,0.008 m 0.0159,-0.01 c 0.005,-0.003 0.0106,-0.006 0.0159,-0.01 -0.006,0.004 -0.0106,0.007 -0.0159,0.01 m 0.0159,-0.01 c 0.003,-0.002 0.006,-0.004 0.01,-0.006 -0.003,0.002 -0.006,0.004 -0.01,0.006 m 0.0145,-0.009 c 0.001,-7.9e-4 0.003,-0.002 0.004,-0.002 -0.001,7.9e-4 -0.003,0.002 -0.004,0.002 m 0.0106,-0.007 c 8e-4,-2.7e-4 0.001,-7.9e-4 0.002,-0.001 -7.9e-4,2.6e-4 -0.001,7.9e-4 -0.002,0.001 m 0.84067,-0.79058 c 8e-4,-7.9e-4 0.001,-0.002 0.002,-0.002 -7.9e-4,8e-4 -10e-4,0.002 -0.002,0.002 m 0.005,-0.007 c 0.001,-0.001 0.002,-0.003 0.003,-0.005 -10e-4,0.001 -0.002,0.003 -0.003,0.005 m 0.006,-0.008 c 0.001,-0.002 0.003,-0.004 0.004,-0.006 -0.001,0.002 -0.003,0.004 -0.004,0.006 m 0.006,-0.008 c 0.0526,-0.078 0.10054,-0.15839 0.14464,-0.2413 0.13582,-0.25576 0.23178,-0.53516 0.29281,-0.83573 0.0268,-0.13123 0.0469,-0.2667 0.0603,-0.40569 -0.0547,0.56162 -0.21308,1.0601 -0.49777,1.48272 m 0.49812,-1.48695 c 2.6e-4,-0.003 7.9e-4,-0.005 0.001,-0.008 -2.6e-4,0.002 -7.9e-4,0.005 -0.001,0.008 m 0.002,-0.0169 c 0,0 0,0 0,-2.7e-4 v 2.7e-4 m -3.1951,-9.74821 v 0 c -0.0353,-0.0759 -0.0702,-0.1517 -0.10548,-0.22719 0.0353,0.0759 0.0702,0.15099 0.10548,0.22719 v 0"
       style="fill:#dbdbdb;fill-opacity:1;fill-rule:nonzero;stroke:none;stroke-width:0.03527778"
       id="path950"
       inkscape:connector-curvature="0" />
    <path
       d="m 126.05738,138.6673 c -1.6958,-0.48825 -3.52354,-0.83715 -5.44265,-1.02235 0.33513,-0.69145 0.7874,-1.2566 1.37407,-1.65594 2.6e-4,-2.7e-4 7.9e-4,-8e-4 0.001,-0.001 0.005,-0.003 0.01,-0.006 0.0145,-0.01 2.6e-4,-2.7e-4 0.001,-8e-4 0.001,-0.001 0.005,-0.003 0.009,-0.006 0.0138,-0.009 7.9e-4,-2.7e-4 0.002,-0.001 0.002,-0.002 0.004,-0.003 0.008,-0.006 0.0127,-0.008 0.001,-8e-4 0.002,-0.001 0.003,-0.002 0.004,-0.003 0.008,-0.006 0.0127,-0.008 0.001,-8e-4 0.002,-0.001 0.003,-0.002 0.005,-0.002 0.008,-0.005 0.013,-0.008 0.001,-8e-4 0.002,-0.001 0.003,-0.002 0.004,-0.003 0.008,-0.006 0.0124,-0.008 0.001,-8e-4 0.002,-0.001 0.004,-0.002 0.004,-0.003 0.008,-0.005 0.0124,-0.008 10e-4,-8e-4 0.002,-0.002 0.004,-0.002 0.004,-0.002 0.008,-0.005 0.0127,-0.008 10e-4,-8e-4 0.002,-10e-4 0.003,-0.002 0.005,-0.003 0.0102,-0.006 0.0159,-0.01 v 0 0 c 0.003,-0.002 0.006,-0.004 0.009,-0.006 10e-4,-10e-4 0.003,-0.002 0.005,-0.003 0.001,-8e-4 0.003,-0.002 0.004,-0.002 0.002,-0.001 0.004,-0.003 0.006,-0.004 7.9e-4,-2.7e-4 0.001,-8e-4 0.002,-0.001 0.35207,-0.22014 0.62865,-0.48507 0.83855,-0.78952 7.9e-4,-7.9e-4 0.001,-0.002 0.002,-0.002 0.001,-0.001 0.002,-0.003 0.003,-0.004 0.001,-10e-4 0.002,-0.003 0.003,-0.005 7.9e-4,-0.001 0.002,-0.002 0.002,-0.004 10e-4,-0.002 0.003,-0.004 0.004,-0.006 2.6e-4,-7.9e-4 0.001,-0.001 0.001,-0.002 0.28469,-0.42263 0.44309,-0.9211 0.49777,-1.48272 2.6e-4,-0.001 2.6e-4,-0.003 2.6e-4,-0.004 2.7e-4,-0.003 8e-4,-0.006 0.001,-0.008 0,-0.003 2.7e-4,-0.006 8e-4,-0.009 v -2.7e-4 c 0.0162,-0.17321 0.0222,-0.35242 0.0194,-0.53728 -0.0356,-2.38866 -1.58962,-5.71606 -3.21451,-9.21067 v 0 c -0.0353,-0.0762 -0.0702,-0.15134 -0.10548,-0.22719 -0.19615,-0.42334 -0.38806,-0.84244 -0.5775,-1.25871 -0.0307,-0.0667 -0.0603,-0.13229 -0.09,-0.19756 -0.34079,-0.74965 -0.66675,-1.48378 -0.9846,-2.20874 -0.15664,-0.37289 -0.23425,-0.5909 -0.20567,-0.60643 0.002,-10e-4 0.004,-10e-4 0.007,-10e-4 0.24235,0 4.08022,4.18395 5.92631,9.9942 0.67698,2.13078 1.84468,5.56295 1.76812,9.35919"
       style="fill:#ed6f1a;fill-opacity:1;fill-rule:nonzero;stroke:none;stroke-width:0.03527778"
       id="path952"
       inkscape:connector-curvature="0" />
    <path
       d="m 144.47555,150.86353 c 1.39594,-2.51636 2.43734,-5.4102 2.43629,-8.2483 10e-4,2.8381 -1.04035,5.73194 -2.43629,8.2483 v 0 m -4.51273,-20.10728 c -0.002,-0.002 -0.004,-0.005 -0.005,-0.007 0.002,0.002 0.004,0.005 0.005,0.007 m -0.0995,-0.12312 c -0.003,-0.004 -0.006,-0.008 -0.009,-0.0109 0.003,0.004 0.006,0.007 0.009,0.0109 m -0.0614,-0.0759 c -0.004,-0.005 -0.007,-0.009 -0.0113,-0.0141 0.004,0.005 0.007,0.009 0.0113,0.0141 m -0.10231,-0.127 c -0.004,-0.005 -0.007,-0.009 -0.0109,-0.0134 0.004,0.005 0.007,0.009 0.0109,0.0134 m -0.0596,-0.0741 c -0.005,-0.006 -0.009,-0.0113 -0.0138,-0.0173 0.005,0.006 0.009,0.0113 0.0138,0.0173 m -0.10019,-0.12488 c -0.007,-0.008 -0.0134,-0.0166 -0.0201,-0.0251 0.007,0.008 0.013,0.0166 0.0201,0.0251 m -0.0586,-0.0727 c -0.007,-0.009 -0.013,-0.0166 -0.0198,-0.0251 0.007,0.008 0.013,0.0166 0.0198,0.0251 m -0.0452,-0.0565 c -0.0113,-0.0141 -0.0233,-0.0293 -0.0346,-0.0434 0.0116,0.0145 0.0229,0.0289 0.0346,0.0434 m -0.0586,-0.0734 c -0.007,-0.008 -0.0134,-0.0166 -0.0201,-0.0251 0.006,0.008 0.0134,0.0169 0.0201,0.0251 m -0.0575,-0.072 c -0.007,-0.009 -0.0141,-0.0177 -0.0215,-0.0268 0.007,0.009 0.0145,0.018 0.0215,0.0268 m -0.0455,-0.0568 c -0.0106,-0.013 -0.0208,-0.0261 -0.0314,-0.0395 0.0102,0.013 0.0212,0.0265 0.0314,0.0395 m -0.0586,-0.0734 c -0.007,-0.008 -0.0145,-0.018 -0.0212,-0.0265 0.007,0.009 0.0141,0.0177 0.0212,0.0265 m -0.0571,-0.0716 c -0.007,-0.009 -0.0145,-0.0183 -0.0215,-0.0272 0.007,0.009 0.0148,0.0183 0.0215,0.0272 m -0.0469,-0.0593 c -0.007,-0.008 -0.0134,-0.0169 -0.0201,-0.0254 0.007,0.008 0.0134,0.0169 0.0201,0.0254 m -0.0586,-0.0737 c -0.006,-0.007 -0.0124,-0.0155 -0.0187,-0.0233 0.006,0.008 0.0127,0.0155 0.0187,0.0233 m -0.0565,-0.0709 c -0.007,-0.008 -0.0138,-0.0173 -0.0205,-0.0257 0.007,0.009 0.0134,0.0169 0.0205,0.0257 m -0.0459,-0.0579 c -0.006,-0.008 -0.0127,-0.0162 -0.019,-0.0243 0.006,0.008 0.0127,0.0162 0.019,0.0243 m -0.0593,-0.0748 c -0.005,-0.007 -0.0116,-0.0148 -0.0169,-0.0215 0.006,0.007 0.0113,0.0145 0.0169,0.0215 m -0.0614,-0.0776 c -0.005,-0.006 -0.009,-0.0116 -0.0141,-0.018 0.005,0.006 0.01,0.012 0.0141,0.018 m -0.0423,-0.0536 c -0.003,-0.004 -0.007,-0.009 -0.01,-0.0124 0.003,0.004 0.007,0.008 0.01,0.0124 m -0.0603,-0.0765 c -0.004,-0.004 -0.008,-0.01 -0.0109,-0.0138 0.004,0.005 0.007,0.009 0.0109,0.0138 m -0.1023,-0.12982 c -0.001,-10e-4 -0.001,-10e-4 -0.002,-0.003 7.9e-4,0.001 0.001,0.002 0.002,0.003 m -0.0649,-0.0822 v 0 c 2.6e-4,2.6e-4 -2.7e-4,-2.7e-4 0,0 m -0.0956,-0.12206 c -2.7e-4,-2.7e-4 -8e-4,-8e-4 -0.001,-0.001 2.6e-4,7.9e-4 2.6e-4,2.6e-4 0.001,0.001"
       style="fill:#ffffff;fill-opacity:1;fill-rule:nonzero;stroke:none;stroke-width:0.03527778"
       id="path954"
       inkscape:connector-curvature="0" />
    <path
       d="m 137.25949,151.24347 c 0.15875,-0.21837 0.30973,-0.4452 0.45261,-0.68157 6.62904,-10.96221 -6.53838,-31.45402 -6.47912,-31.45402 0.002,0 0.0116,0.013 0.0303,0.0395 2.12655,2.99614 4.54872,6.3493 7.20055,9.7282 2.7e-4,2.7e-4 7.9e-4,8e-4 0.001,10e-4 0.0314,0.0406 0.0639,0.0815 0.0956,0.12207 v 0 c 0.0208,0.0261 0.042,0.0533 0.0628,0.0794 8e-4,0.001 0.001,0.002 0.002,0.003 0.0303,0.0388 0.061,0.0776 0.0914,0.11606 0.003,0.004 0.007,0.01 0.0109,0.0138 0.0166,0.0212 0.0335,0.0427 0.0504,0.0642 0.003,0.004 0.007,0.008 0.01,0.0124 0.01,0.012 0.0187,0.0236 0.0282,0.0356 0.005,0.006 0.009,0.0116 0.0141,0.018 0.0148,0.0187 0.0296,0.0374 0.0445,0.0561 0.005,0.007 0.0116,0.0145 0.0169,0.0215 0.0138,0.0169 0.0265,0.0335 0.0402,0.0505 0.006,0.008 0.0127,0.0162 0.019,0.0243 0.008,0.0106 0.0173,0.0215 0.0254,0.0321 0.007,0.008 0.0138,0.0173 0.0205,0.0257 0.0127,0.0159 0.0254,0.0318 0.0377,0.0476 0.006,0.008 0.0127,0.0159 0.0187,0.0233 0.0127,0.0162 0.0254,0.0321 0.0385,0.0483 0.007,0.008 0.0134,0.0169 0.0201,0.0254 0.008,0.0109 0.0169,0.0212 0.0254,0.0321 0.007,0.009 0.0145,0.0183 0.0215,0.0272 0.0124,0.0152 0.024,0.03 0.036,0.0452 0.007,0.008 0.0145,0.018 0.0212,0.0265 0.009,0.0116 0.018,0.0226 0.0272,0.0339 0.0106,0.0134 0.0208,0.0265 0.0314,0.0395 0.008,0.0102 0.0159,0.0201 0.024,0.03 0.007,0.009 0.0145,0.018 0.0215,0.0268 0.0124,0.0159 0.0247,0.031 0.0374,0.0469 0.007,0.008 0.013,0.0166 0.0201,0.0251 0.008,0.0102 0.0159,0.0201 0.024,0.03 0.0113,0.0141 0.0233,0.0293 0.0346,0.0434 0.008,0.0102 0.0169,0.0208 0.0254,0.0314 0.007,0.008 0.013,0.0162 0.0198,0.0251 0.0127,0.0155 0.0257,0.0317 0.0385,0.0476 0.007,0.008 0.013,0.0166 0.0201,0.0251 0.0286,0.0356 0.0575,0.072 0.0864,0.1076 0.005,0.006 0.009,0.0113 0.0138,0.0173 0.0159,0.0198 0.0328,0.0406 0.0487,0.0607 0.004,0.005 0.007,0.009 0.0109,0.0134 0.0303,0.0377 0.0607,0.0755 0.091,0.11289 0.004,0.005 0.008,0.01 0.0113,0.0141 0.0173,0.0215 0.0349,0.0434 0.0522,0.0649 0.003,0.003 0.006,0.007 0.009,0.0109 0.0314,0.0388 0.0628,0.0776 0.0942,0.11642 0.002,0.002 0.004,0.005 0.005,0.007 1.40723,1.73778 2.87232,3.46604 4.38573,5.13962 1.84045,2.03447 2.56258,4.35751 2.56329,6.71935 0.001,2.8381 -1.04034,5.73194 -2.43629,8.2483 -2.38195,0.13723 -4.78825,0.26423 -7.21606,0.37994"
       style="fill:#eaab52;fill-opacity:1;fill-rule:nonzero;stroke:none;stroke-width:0.03527778"
       id="path956"
       inkscape:connector-curvature="0" />
    <path
       d="m 131.26367,93.296188 c -0.24588,-0.45402 -0.54997,-0.88547 -0.92498,-1.23401 0.37501,0.34819 0.6791,0.77964 0.92498,1.23401 v 0 m -0.92568,-1.23436 c -0.01,-0.01 -0.0205,-0.019 -0.0307,-0.0282 0.0102,0.009 0.0208,0.0187 0.0307,0.0282 m -0.0321,-0.0296 c -0.003,-0.003 -0.006,-0.005 -0.009,-0.008 0.003,0.003 0.006,0.005 0.009,0.008 m -0.0113,-0.0102 c -0.003,-0.002 -0.006,-0.005 -0.008,-0.008 0.003,0.003 0.006,0.005 0.008,0.008 m -0.0113,-0.01 c -0.002,-0.002 -0.004,-0.004 -0.006,-0.006 0.002,0.002 0.004,0.004 0.006,0.006 m -0.0106,-0.01 c -0.002,-0.002 -0.005,-0.004 -0.007,-0.006 0.002,0.002 0.005,0.004 0.007,0.006 m -0.0109,-0.01 c -0.002,-0.002 -0.005,-0.004 -0.007,-0.006 0.002,0.002 0.005,0.004 0.007,0.006 m -0.0116,-0.0102 c -0.001,-10e-4 -0.003,-0.002 -0.004,-0.004 10e-4,10e-4 0.003,0.002 0.004,0.004 m -0.012,-0.0106 c -0.001,-7.2e-4 -0.002,-0.002 -0.003,-0.002 0.001,7.1e-4 0.002,0.002 0.003,0.002 m -0.0138,-0.0116 c -2.7e-4,-3.5e-4 -8e-4,-3.5e-4 -0.001,-7.2e-4 2.6e-4,3.4e-4 7.9e-4,7.2e-4 0.001,7.2e-4 m -0.0198,-0.0166 c 0,0 0,0 -2.7e-4,-3.4e-4 l 2.7e-4,3.4e-4"
       style="fill:#dbdbdb;fill-opacity:1;fill-rule:nonzero;stroke:none;stroke-width:0.03527778"
       id="path958"
       inkscape:connector-curvature="0" />
    <path
       d="m 130.24662,118.00828 c -0.381,0 -4.84611,-5.27156 -7.31062,-9.10202 -9.99807,-15.539162 -1.36066,-19.364332 4.07741,-19.364332 0.0991,0 0.19755,0.001 0.29457,0.004 0.67416,0.0173 2.77707,0.40535 3.95534,2.32446 0.30515,0.61207 0.003,1.41957 2.7e-4,1.42628 -0.24589,-0.45438 -0.54998,-0.88583 -0.92499,-1.23402 -2.6e-4,-3.4e-4 -2.6e-4,-3.4e-4 -7.9e-4,-3.4e-4 -0.01,-0.01 -0.0205,-0.019 -0.0307,-0.0282 -2.6e-4,-3.4e-4 -7.9e-4,-0.001 -0.001,-0.001 -0.003,-0.003 -0.006,-0.005 -0.009,-0.008 -0.001,-7.1e-4 -0.002,-0.001 -0.002,-0.002 -0.003,-0.002 -0.006,-0.005 -0.008,-0.008 -0.001,-7.1e-4 -0.002,-0.001 -0.003,-0.002 -0.002,-0.002 -0.004,-0.004 -0.006,-0.006 -0.001,-0.001 -0.003,-0.002 -0.004,-0.004 -0.002,-0.002 -0.005,-0.004 -0.007,-0.006 -0.001,-10e-4 -0.003,-0.002 -0.004,-0.004 -0.002,-0.002 -0.005,-0.004 -0.007,-0.006 -0.001,-0.001 -0.003,-0.002 -0.005,-0.004 -0.001,-0.001 -0.003,-0.002 -0.004,-0.004 -0.002,-0.002 -0.005,-0.005 -0.008,-0.007 -0.001,-7.1e-4 -0.002,-0.002 -0.003,-0.002 -0.004,-0.003 -0.007,-0.006 -0.0106,-0.009 -2.7e-4,0 -7.9e-4,-3.4e-4 -0.001,-7.1e-4 -0.006,-0.005 -0.0124,-0.0106 -0.0187,-0.0159 l -2.6e-4,-3.4e-4 c -0.49989,-0.41875 -1.1176,-0.69109 -1.8789,-0.69109 -0.9712,0 -2.17628,0.44344 -3.66783,1.59103 v 0 c -1.92934,1.48413 -2.68076,3.62267 -2.68076,6.04343 8e-4,5.815542 4.33917,13.260572 7.11024,17.182042 0.96943,1.37196 1.28446,1.93922 1.15958,1.93922"
       style="fill:#ed6f1a;fill-opacity:1;fill-rule:nonzero;stroke:none;stroke-width:0.03527778"
       id="path960"
       inkscape:connector-curvature="0" />
    <path
       d="m 120.56251,137.75572 c -1.16028,-0.14817 -2.35761,-0.23601 -3.58245,-0.25753 0.14781,-0.004 0.29562,-0.005 0.44238,-0.005 1.08656,0 2.15265,0.0519 3.19229,0.15205 -0.018,0.0367 -0.0353,0.0737 -0.0522,0.11077"
       style="fill:#b8b8b8;fill-opacity:1;fill-rule:nonzero;stroke:none;stroke-width:0.03527778"
       id="path962"
       inkscape:connector-curvature="0" />
    <path
       d="m 136.18916,151.29392 c 0.01,-0.0399 0.0194,-0.0801 0.0286,-0.1203 0,-7.9e-4 0,-0.001 0,-0.002 0.12135,-0.53446 0.18415,-1.08091 0.18415,-1.63689 v 0 0 0 c 0,-4.54201 -4.18112,-8.49665 -10.35368,-10.5477 0.004,-0.10654 0.007,-0.21343 0.009,-0.31962 6.73453,1.93922 11.38555,6.0766 11.38555,10.86732 0,0.58103 -0.0684,1.15217 -0.20073,1.70992 -0.35066,0.0166 -0.70167,0.0332 -1.05304,0.0494"
       style="fill:#ed6f1a;fill-opacity:1;fill-rule:nonzero;stroke:none;stroke-width:0.03527778"
       id="path964"
       inkscape:connector-curvature="0" />
    <path
       d="m 120.56251,137.75572 v 0 c 0.0169,-0.037 0.0342,-0.0741 0.0522,-0.11077 v 0 c -0.018,0.0367 -0.0353,0.0737 -0.0522,0.11077"
       style="fill:#9e9e9e;fill-opacity:1;fill-rule:nonzero;stroke:none;stroke-width:0.03527778"
       id="path966"
       inkscape:connector-curvature="0" />
    <path
       d="m 126.04821,138.98691 c -1.69369,-0.56268 -3.5373,-0.98213 -5.4857,-1.23119 0.0169,-0.037 0.0342,-0.0741 0.0522,-0.11077 1.91911,0.1852 3.74686,0.5341 5.44266,1.02235 -0.002,0.10618 -0.005,0.21307 -0.009,0.31961"
       style="fill:#ed6f1a;fill-opacity:1;fill-rule:nonzero;stroke:none;stroke-width:0.03527778"
       id="path968"
       inkscape:connector-curvature="0" />
    <path
       d="m 136.40188,149.53462 c 0,6.65021 -8.96408,11.91577 -20.02013,12.04136 -10.03124,0.11359 -15.82597,-2.95275 -18.638313,-6.01945 -2.80035,-3.05364 -2.64372,-6.10729 -0.76835,-6.0205 0.39934,-2.79189 2.12478,-6.7363 6.234293,-7.11271 0,-1.8736 7.08236,-4.93042 13.17237,-4.93042 11.05676,0 20.02013,5.39115 20.02013,12.04172"
       style="fill:#ed801a;fill-opacity:1;fill-rule:nonzero;stroke:none;stroke-width:0.03527778"
       id="path970"
       inkscape:connector-curvature="0" />
    <path
       d="m 136.18916,151.29392 c 0.01,-0.0409 0.0194,-0.0815 0.0286,-0.12242 0,8e-4 0,0.001 0,0.002 -0.009,0.0402 -0.0187,0.0804 -0.0286,0.1203 v 0"
       style="fill:#914233;fill-opacity:1;fill-rule:nonzero;stroke:none;stroke-width:0.03527778"
       id="path972"
       inkscape:connector-curvature="0" />
    <path
       d="m 102.48583,152.0725 c -0.73448,0 -1.47214,-0.001 -2.2098,-0.004 -1.529293,-0.005 -3.050823,-0.0141 -4.565303,-0.0282 -0.0759,-0.32068 -0.11253,-0.62124 -0.11218,-0.89465 0.001,-0.97754 0.47272,-1.61184 1.29963,-1.61184 0.0254,0 0.0508,2.7e-4 0.0769,0.002 0.10372,-0.7239 2.8,-0.99836 6.735233,-0.99836 11.22186,0 32.52012,2.23132 32.50742,2.63384 -0.009,0.0409 -0.0187,0.0815 -0.0286,0.12241 -10.79712,0.49883 -22.04156,0.77858 -33.70333,0.77858"
       style="fill:#ed6f1a;fill-opacity:1;fill-rule:nonzero;stroke:none;stroke-width:0.03527778"
       id="path974"
       inkscape:connector-curvature="0" />
    <path
       d="m 102.98536,142.44766 c -0.0289,-7.9e-4 0.0416,-0.008 0.22402,-0.0243 -0.0755,0.007 -0.15029,0.0148 -0.22402,0.0243"
       style="fill:#ffffff;fill-opacity:1;fill-rule:nonzero;stroke:none;stroke-width:0.03527778"
       id="path976"
       inkscape:connector-curvature="0" />
    <path
       d="m 135.74925,150.48923 c -1.68452,0 -6.54192,-4.33352 -13.5435,-6.36376 -5.15055,-1.49366 -11.44411,-1.76071 -15.39522,-1.76071 -1.10067,0 -2.01965,0.0205 -2.68146,0.0413 -0.66181,0.0208 -1.06645,0.0416 -1.13842,0.0416 -0.002,0 -0.004,0 -0.005,0 0.0737,-0.01 0.14852,-0.0177 0.22402,-0.0243 v 0 c 0,-1.8736 7.08237,-4.93042 13.17237,-4.93042 11.05676,0 20.02013,5.39115 20.02013,12.04172 v 0 c 0,0.6731 -0.2233,0.95461 -0.65263,0.95461"
       style="fill:#edb46c;fill-opacity:1;fill-rule:nonzero;stroke:none;stroke-width:0.03527778"
       id="path978"
       inkscape:connector-curvature="0" />
    <path
       d="m 139.61675,99.937938 c 0,0.565862 -0.45826,1.024472 -1.02412,1.024472 -0.56585,0 -1.02411,-0.45861 -1.02411,-1.024472 0,-0.56585 0.45826,-1.02447 1.02411,-1.02447 0.56586,0 1.02412,0.45862 1.02412,1.02447"
       style="fill:#85c5bd;fill-opacity:1;fill-rule:nonzero;stroke:none;stroke-width:0.03527778"
       id="path980"
       inkscape:connector-curvature="0" />
    <path
       d="m 139.31689,99.937938 c 0,0.400052 -0.32421,0.724252 -0.72426,0.724252 -0.40005,0 -0.7246,-0.3242 -0.7246,-0.724252 0,-0.40005 0.32455,-0.72425 0.7246,-0.72425 0.40005,0 0.72426,0.3242 0.72426,0.72425"
       style="fill:#85c5bd;fill-opacity:1;fill-rule:nonzero;stroke:none;stroke-width:0.03527778"
       id="path982"
       inkscape:connector-curvature="0" />
    <path
       d="m 143.54598,98.080918 c 0,-0.007 0,-0.0145 0,-0.0215 0,0.007 0,0.0145 0,0.0215 m 0,-0.0279 c 0,-0.005 0,-0.0113 0,-0.0169 0,0.006 0,0.0113 0,0.0169 m 0,-0.0222 c -2.6e-4,-0.007 -2.6e-4,-0.0138 -2.6e-4,-0.0205 0,0.007 0,0.0138 2.6e-4,0.0205 m -2.6e-4,-0.0272 c 0,-0.005 0,-0.01 -2.6e-4,-0.0148 2.6e-4,0.005 2.6e-4,0.01 2.6e-4,0.0148 m -2.6e-4,-0.0229 c 0,-0.006 0,-0.0113 -2.7e-4,-0.0169 2.7e-4,0.006 2.7e-4,0.0113 2.7e-4,0.0169 m -2.7e-4,-0.0286 c 0,-0.004 -2.6e-4,-0.007 -2.6e-4,-0.0113 0,0.004 2.6e-4,0.008 2.6e-4,0.0113 m -2.6e-4,-0.0222 c -2.7e-4,-0.003 -2.7e-4,-0.006 -2.7e-4,-0.009 0,0.003 0,0.006 2.7e-4,0.009 m -0.001,-0.0346 c 0,-7.2e-4 0,-0.002 0,-0.002 0,7.1e-4 0,0.002 0,0.002 m -2.7e-4,-0.018 c 0,-0.001 0,-0.002 0,-0.003 0,10e-4 0,0.002 0,0.003 m -1.15393,-4.07776 -2.7e-4,-3.4e-4 c -0.036,-0.0773 -0.0734,-0.15522 -0.11183,-0.23389 0.0388,0.0787 0.0762,0.15698 0.11219,0.23424 m -0.11536,-0.24095 c -7.9e-4,-10e-4 -0.001,-0.002 -0.002,-0.003 7.9e-4,0.001 0.001,0.002 0.002,0.003 m -1.96286,-3.23744 c -7.9e-4,-7.1e-4 -0.001,-0.001 -0.001,-0.002 0,3.5e-4 2.7e-4,0.001 0.001,0.002 m -0.001,-0.002 v 0 0"
       style="fill:#ffffff;fill-opacity:1;fill-rule:nonzero;stroke:none;stroke-width:0.03527778"
       id="path984"
       inkscape:connector-curvature="0" />
    <path
       d="m 136.90565,104.53428 c 0.002,0 0.005,0 0.007,0 -0.002,0 -0.005,0 -0.007,0 m 0.0222,0 c 0.002,0 0.005,0 0.007,0 -0.002,0 -0.005,0 -0.007,0 m 0.0261,-3.4e-4 c 7.9e-4,0 0.001,0 0.002,0 -0.001,0 -0.002,0 -0.002,0 m 0.024,-3.4e-4 c 0.002,0 0.004,0 0.006,0 -0.002,0 -0.004,0 -0.006,0 m 0.0222,-3.5e-4 c 0.002,0 0.004,0 0.007,0 -0.002,0 -0.005,0 -0.007,0 m 0.0243,-3.4e-4 c 0.001,0 0.003,0 0.004,0 -0.001,0 -0.002,0 -0.004,0 m 0.0257,-7.2e-4 c 0.002,0 0.004,0 0.006,0 -0.002,0 -0.004,0 -0.006,0 m 0.0219,-7.1e-4 c 0.002,0 0.005,0 0.007,0 -0.002,0 -0.005,0 -0.007,0 m 0.024,-7.2e-4 c 0.001,0 0.003,0 0.005,0 -10e-4,0 -0.003,0 -0.005,0 m 0.0268,-7.1e-4 c 0.001,-3.4e-4 0.002,-3.4e-4 0.003,-3.4e-4 -8e-4,0 -0.002,0 -0.003,3.4e-4 m 0.0222,-0.001 c 0.002,0 0.004,0 0.006,-3.4e-4 -0.002,3.4e-4 -0.004,3.4e-4 -0.006,3.4e-4 m 0.0236,-0.001 c 10e-4,0 0.003,0 0.004,0 -0.001,0 -0.003,0 -0.004,0 m 0.0494,-0.002 c 0.001,0 0.003,0 0.005,0 -0.002,0 -0.003,0 -0.005,0 m 0.0229,-0.001 c 0.001,0 0.003,-3.4e-4 0.004,-3.4e-4 -10e-4,0 -0.003,3.4e-4 -0.004,3.4e-4 m 0.0497,-0.003 c 0.001,0 0.002,0 0.004,0 -10e-4,0 -0.002,0 -0.004,0 m 0.0233,-10e-4 c 0.001,0 0.002,0 0.004,-3.4e-4 -0.001,3.4e-4 -0.002,3.4e-4 -0.004,3.4e-4 m 0.0501,-0.003 c 2.6e-4,0 7.9e-4,0 0.001,0 -2.7e-4,0 -8e-4,0 -0.001,0 m 0.0233,-0.002 c 7.9e-4,0 0.001,0 0.002,-3.4e-4 -7.9e-4,3.4e-4 -0.001,3.4e-4 -0.002,3.4e-4 m 0.0727,-0.006 c 2.6e-4,0 0.001,0 0.002,0 -8e-4,0 -0.001,0 -0.002,0"
       style="fill:#a6d5cf;fill-opacity:1;fill-rule:nonzero;stroke:none;stroke-width:0.03527778"
       id="path986"
       inkscape:connector-curvature="0" />
    <path
       d="m 136.88413,104.53428 v 0 c -1.36983,-0.8135 0.0861,-3.4992 -0.19297,-7.318372 0.79481,0.0956 1.61608,0.15945 2.38972,0.15945 2.14347,3.5e-4 3.92218,-0.49106 3.76942,-2.16252 -0.0346,-0.37924 -0.21342,-0.87877 -0.46143,-1.41358 l 2.7e-4,3.4e-4 c 0.003,0.007 0.006,0.0138 0.009,0.0205 0.67275,1.25518 1.10525,2.66453 1.14476,4.05412 0,0.001 0,0.002 0,0.003 0,0.005 2.7e-4,0.0102 2.7e-4,0.0155 0,7.2e-4 0,0.002 0,0.003 2.6e-4,0.008 2.6e-4,0.0169 7.9e-4,0.0254 0,0.003 0,0.006 2.6e-4,0.009 0,0.004 0,0.007 0,0.0109 0,0.004 2.7e-4,0.008 2.7e-4,0.0113 0,0.004 0,0.008 0,0.0116 2.6e-4,0.006 2.6e-4,0.0113 2.6e-4,0.0169 0,0.003 0,0.006 0,0.008 2.7e-4,0.005 2.7e-4,0.01 2.7e-4,0.0148 0,0.002 0,0.004 0,0.007 0,0.007 0,0.0138 2.6e-4,0.0205 0,0.002 0,0.004 0,0.005 0,0.006 0,0.0116 0,0.0169 0,0.002 0,0.004 0,0.006 0,0.007 0,0.0145 0,0.0215 v 0 0 c 0,0.13088 -0.004,0.25965 -0.0106,0.38665 -0.002,0.0427 -0.007,0.084 -0.0102,0.12629 -0.006,0.0836 -0.012,0.16722 -0.0208,0.24941 -0.006,0.0494 -0.0138,0.0974 -0.0205,0.14605 -0.01,0.073 -0.0187,0.14676 -0.0307,0.21837 -0.008,0.0508 -0.0194,0.10019 -0.0293,0.15029 -0.0134,0.0677 -0.0254,0.13652 -0.0406,0.2032 -0.0116,0.0511 -0.0257,0.10089 -0.0384,0.15134 -0.0162,0.0639 -0.0318,0.12806 -0.0497,0.19085 -0.0148,0.0504 -0.0318,0.0998 -0.0476,0.149582 -0.0187,0.0607 -0.0371,0.12171 -0.0582,0.18097 -0.0173,0.0497 -0.0367,0.0977 -0.0557,0.14676 -0.0215,0.0579 -0.043,0.11571 -0.0663,0.17216 -0.0204,0.0487 -0.0423,0.096 -0.0638,0.14358 -0.0247,0.055 -0.0487,0.11042 -0.0748,0.16404 -0.0427,0.0885 -0.0871,0.17603 -0.1337,0.26141 l -0.0317,0.0547 c -0.0392,0.0706 -0.0797,0.1404 -0.12171,0.20919 l -0.0508,0.0797 c -0.0459,0.072 -0.0917,0.14358 -0.14005,0.21308 l -0.005,0.007 c -1.17298,1.67922 -3.11467,2.6543 -4.98369,2.82258 -2.6e-4,0 -0.001,0 -0.002,0 -0.0236,0.002 -0.0473,0.004 -0.0705,0.006 -7.9e-4,3.4e-4 -10e-4,3.4e-4 -0.002,3.4e-4 -0.007,7.2e-4 -0.0148,0.001 -0.0222,0.002 -2.6e-4,0 -7.9e-4,0 -0.001,0 -0.0155,0.001 -0.031,0.002 -0.0466,0.003 -0.001,3.4e-4 -0.002,3.4e-4 -0.004,3.4e-4 -0.007,3.5e-4 -0.0134,10e-4 -0.0198,10e-4 -0.001,0 -0.002,0 -0.004,0 -0.0152,0.001 -0.0303,0.002 -0.0455,0.003 -0.001,0 -0.003,3.5e-4 -0.004,3.5e-4 -0.006,3.4e-4 -0.0124,7.1e-4 -0.0183,10e-4 -0.002,0 -0.003,0 -0.005,0 -0.0152,0.001 -0.0303,0.002 -0.0452,0.003 -0.001,0 -0.003,0 -0.004,0 -0.006,3.4e-4 -0.012,7.1e-4 -0.018,7.1e-4 -0.002,3.5e-4 -0.004,3.5e-4 -0.006,3.5e-4 -0.006,3.4e-4 -0.013,7.1e-4 -0.0194,7.1e-4 -7.9e-4,0 -0.002,0 -0.003,3.5e-4 -0.007,0 -0.0148,3.4e-4 -0.0222,7.1e-4 -10e-4,0 -0.003,0 -0.005,0 -0.006,3.4e-4 -0.0113,3.4e-4 -0.0169,7.1e-4 -0.002,0 -0.005,0 -0.007,0 -0.006,3.5e-4 -0.0109,3.5e-4 -0.0162,7.2e-4 -0.002,0 -0.004,0 -0.006,0 -0.007,3.4e-4 -0.0145,3.4e-4 -0.0219,7.1e-4 -0.001,0 -0.002,0 -0.004,0 -0.006,0 -0.0116,3.5e-4 -0.0176,3.5e-4 -0.002,0 -0.005,0 -0.007,0 -0.005,3.4e-4 -0.0106,3.4e-4 -0.0159,3.4e-4 -0.002,0 -0.004,0 -0.006,0 -0.007,3.4e-4 -0.0145,3.4e-4 -0.0215,3.4e-4 -0.001,0 -0.002,0 -0.002,0 -0.006,0 -0.013,3.5e-4 -0.019,3.5e-4 -0.002,0 -0.005,0 -0.007,0 -0.005,0 -0.0102,0 -0.0155,0 -0.002,0 -0.005,0 -0.007,0 -0.007,0 -0.0141,0 -0.0215,0 v 0 m 0.68439,-4.596342 v 0 c 0,0.565852 0.45826,1.024462 1.02412,1.024462 0.56585,0 1.02411,-0.45861 1.02411,-1.024462 v 0 0 c 0,-0.56586 -0.45826,-1.02447 -1.02411,-1.02447 -0.56586,0 -1.02412,0.45861 -1.02412,1.02447 v 0"
       style="fill:#ea9b52;fill-opacity:1;fill-rule:nonzero;stroke:none;stroke-width:0.03527778"
       id="path988"
       inkscape:connector-curvature="0" />
    <path
       d="m 139.08088,97.375358 c -0.77364,0 -1.59491,-0.0639 -2.38972,-0.15945 -0.0656,-0.89429 -0.22613,-1.85067 -0.54045,-2.86032 -0.12736,-0.40852 -1.78083,-5.47335 -6.24523,-7.80627 -1.78541,-0.9331 -3.65478,-1.23719 -5.38974,-1.23719 -1.62913,0 -3.13972,0.26846 -4.35045,0.53657 -1.21074,0.26882 -2.12126,0.53693 -2.55094,0.53693 -0.1524,0 -0.24447,-0.0335 -0.26776,-0.11324 1.17899,-0.90735 4.73181,-3.56059 9.86861,-3.60151 0.0374,0 0.0744,-3.5e-4 0.11183,-3.5e-4 0.13194,0 0.26423,0.002 0.39687,0.005 1.1684,0.0303 4.59811,0.16474 8.02817,2.52271 2.56363,1.76177 3.92853,3.94088 4.55718,5.12092 0,0 2.6e-4,0 2.6e-4,3.5e-4 v 0 h 2.7e-4 c 0,3.4e-4 2.6e-4,0.001 0.001,0.002 0.0498,0.0705 1.2252,1.73813 1.9611,3.23426 7.9e-4,0.001 10e-4,0.002 0.002,0.003 0.001,0.002 0.002,0.005 0.003,0.007 0.0384,0.0787 0.0759,0.15664 0.11183,0.23389 0.24801,0.53482 0.42686,1.03435 0.46143,1.41358 0.15276,1.67147 -1.62595,2.16289 -3.76942,2.16253"
       style="fill:#ed801a;fill-opacity:1;fill-rule:nonzero;stroke:none;stroke-width:0.03527778"
       id="path990"
       inkscape:connector-curvature="0" />
    <path
       d="m 138.59263,100.96241 c -0.56585,0 -1.02411,-0.45861 -1.02411,-1.024472 0,-0.56585 0.45826,-1.02447 1.02411,-1.02447 0.56586,0 1.02412,0.45862 1.02412,1.02447 0,0.565862 -0.45826,1.024472 -1.02412,1.024472 m 0,-1.748722 c -0.40005,0 -0.7246,0.3242 -0.7246,0.72425 0,0.400052 0.32455,0.724252 0.7246,0.724252 0.40005,0 0.72426,-0.3242 0.72426,-0.724252 0,-0.40005 -0.32421,-0.72425 -0.72426,-0.72425"
       style="fill:#87b6b0;fill-opacity:1;fill-rule:nonzero;stroke:none;stroke-width:0.03527778"
       id="path992"
       inkscape:connector-curvature="0" />
    <path
       d="m 138.59263,100.66219 c -0.40005,0 -0.7246,-0.3242 -0.7246,-0.724252 0,-0.40005 0.32455,-0.72425 0.7246,-0.72425 0.40005,0 0.72426,0.3242 0.72426,0.72425 0,0.400052 -0.32421,0.724252 -0.72426,0.724252 m 0,-1.098902 c -0.20708,0 -0.375,0.16757 -0.375,0.37465 0,0.207082 0.16792,0.374652 0.375,0.374652 0.20673,0 0.37465,-0.16757 0.37465,-0.374652 0,-0.20708 -0.16792,-0.37465 -0.37465,-0.37465"
       style="fill:#97cec7;fill-opacity:1;fill-rule:nonzero;stroke:none;stroke-width:0.03527778"
       id="path994"
       inkscape:connector-curvature="0" />
    <path
       d="m 138.59263,100.31259 c -0.20708,0 -0.375,-0.16757 -0.375,-0.374652 0,-0.20708 0.16792,-0.37465 0.375,-0.37465 0.20673,0 0.37465,0.16757 0.37465,0.37465 0,0.207082 -0.16792,0.374652 -0.37465,0.374652"
       style="fill:#57706d;fill-opacity:1;fill-rule:nonzero;stroke:none;stroke-width:0.03527778"
       id="path996"
       inkscape:connector-curvature="0" />
    <path
       d="m 145.38219,186.76819 c -13.19741,1.55822 -28.1185,2.5915 -44.47539,2.52095 -15.103833,-0.0649 -28.953183,-1.06045 -41.321573,-2.52095 -1.19698,0 -7.566377,-0.11959 -12.7127,-5.26591 -3.253669,-3.25332 -5.265913,-7.74771 -5.265913,-12.7127 0,-9.92928 8.049683,-17.97861 17.978613,-17.97861 12.90567,0.75953 26.48832,1.21496 40.690803,1.258 15.8175,0.048 30.87864,-0.42086 45.10616,-1.258 1.19768,0 7.56673,0.11959 12.71305,5.26556 3.25403,3.25367 5.26486,7.74841 5.26486,12.71305 0,9.92928 -8.04827,17.97861 -17.97791,17.97861"
       style="fill:#ffb8a3;fill-opacity:1;fill-rule:nonzero;stroke:none;stroke-width:0.03527778"
       id="path998"
       inkscape:connector-curvature="0" />
    <path
       d="m 102.84355,189.29337 c -0.63889,0 -1.28376,-0.001 -1.93675,-0.004 -15.103833,-0.0649 -28.953183,-1.06045 -41.321573,-2.52095 -1.19698,0 -7.566377,-0.11959 -12.7127,-5.26591 -2.903008,-2.90289 -4.817886,-6.79438 -5.196769,-11.12614 v 0 c 0.378883,4.33176 2.293761,8.22325 5.196769,11.12591 5.146323,5.14632 11.51572,5.26591 12.7127,5.26591 12.36839,1.4605 26.21774,2.45604 41.321573,2.52095 0.52705,0.002 1.05163,0.004 1.57585,0.004 15.73989,0 30.12722,-1.01635 42.89954,-2.52448 v 0 c 0.005,0.32314 -3.76026,0.46425 -3.76026,0.46425 -5.94959,0.73237 -18.93534,2.06093 -38.77838,2.06093"
       style="fill:#dbdbdb;fill-opacity:1;fill-rule:nonzero;stroke:none;stroke-width:0.03527778"
       id="path1000"
       inkscape:connector-curvature="0" />
    <path
       d="m 102.48265,189.29267 c -0.52422,0 -1.0488,-10e-4 -1.57585,-0.004 -15.103833,-0.0649 -28.953183,-1.06045 -41.321573,-2.52095 -1.19698,0 -7.566377,-0.1196 -12.7127,-5.26591 -2.903008,-2.90266 -4.817886,-6.79415 -5.196769,-11.12591 0.0063,0.001 0.01376,0.002 0.02011,0.003 0.01799,0.23989 0.04057,0.47625 0.06879,0.70485 2.109611,0.2988 4.221339,0.58349 6.337653,0.85372 0.627591,0.28575 1.285875,0.57997 1.970264,0.87983 28.187652,12.34228 57.364845,14.50904 75.888145,14.50904 5.01191,0 9.24384,-0.15875 12.46505,-0.31715 3.22121,-0.15875 5.43172,-0.3175 6.4015,-0.3175 0.36513,0 0.55422,0.0226 0.55492,0.0762 -12.77232,1.50813 -27.15965,2.52448 -42.89954,2.52448"
       style="fill:#db9e8c;fill-opacity:1;fill-rule:nonzero;stroke:none;stroke-width:0.03527778"
       id="path1002"
       inkscape:connector-curvature="0" />
    <path
       d="m 104.61731,175.56185 c -0.12594,0 -0.25188,0 -0.37853,0 -18.707453,0 -37.549663,-1.2513 -56.136469,-3.62408 -0.738011,-0.3362 -1.433689,-0.66005 -2.080684,-0.96626 19.25779,2.53859 38.81579,3.82411 58.217153,3.82411 0.12665,0 0.25259,0 0.37853,-2.6e-4 10.66342,-0.009 20.60963,-0.36725 30.69943,-1.13701 1.41428,0.1143 2.80987,0.21273 4.18359,0.29669 -11.54642,0.97296 -22.74923,1.42628 -34.88302,1.6069"
       style="fill:#db9e8c;fill-opacity:1;fill-rule:nonzero;stroke:none;stroke-width:0.03527778"
       id="path1004"
       inkscape:connector-curvature="0" />
    <path
       d="m 48.102311,171.93777 c -2.116314,-0.27023 -4.228042,-0.55492 -6.337653,-0.85372 -0.02822,-0.2286 -0.0508,-0.46497 -0.06879,-0.70485 1.440039,0.20461 2.881842,0.40181 4.325761,0.59231 0.646994,0.30621 1.342672,0.63006 2.080683,0.96626"
       style="fill:#bc8878;fill-opacity:1;fill-rule:nonzero;stroke:none;stroke-width:0.03527778"
       id="path1006"
       inkscape:connector-curvature="0" />
    <path
       d="m 104.23878,174.79562 c -20.959583,0 -42.104033,-1.50036 -62.852653,-4.46052 -0.853722,-0.12171 -1.446741,-0.91229 -1.325386,-1.76601 0.122061,-0.85407 0.916164,-1.44674 1.766359,-1.32503 20.603277,2.93899 41.599197,4.42877 62.41203,4.42877 0.12524,0 0.25012,0 0.37571,0 25.55487,-0.0222 44.25456,-2.20098 59.17565,-4.32964 0.85372,-0.12171 1.64394,0.47131 1.76741,1.32503 0.11995,0.85373 -0.47272,1.6443 -1.32644,1.76636 -21.30354,3.03883 -39.13222,4.34305 -59.61415,4.36069 -0.12594,2.6e-4 -0.25188,2.6e-4 -0.37853,2.6e-4"
       style="fill:#85c5bd;fill-opacity:1;fill-rule:nonzero;stroke:none;stroke-width:0.03527778"
       id="path1008"
       inkscape:connector-curvature="0" />
    <path
       d="m 75.835577,164.12127 c -1.90464,-0.0723 -3.80788,-0.3429 -5.65749,-0.80504 -0.87101,-0.21731 -1.61255,-0.77999 -2.03447,-1.5434 -0.40076,-0.72461 -0.48225,-1.54799 -0.23001,-2.31846 0.42509,-1.29963 1.69474,-2.17064 3.08716,-2.11807 0.21801,0.008 0.43532,0.0392 0.64664,0.0917 1.44568,0.36089 2.93087,0.5722 4.41748,0.62829 1.48625,0.0564 2.98344,-0.0423 4.44959,-0.29316 0.21695,-0.0367 0.43674,-0.0512 0.65405,-0.0427 1.39206,0.0526 2.59221,1.01671 2.91853,2.34492 0.19332,0.78846 0.0494,1.60337 -0.40499,2.29552 -0.47837,0.72884 -1.25977,1.23331 -2.14524,1.38465 -1.87819,0.32103 -3.79625,0.44733 -5.70125,0.37571"
       style="fill:#ea6b52;fill-opacity:1;fill-rule:nonzero;stroke:none;stroke-width:0.03527778"
       id="path1010"
       inkscape:connector-curvature="0" />
    <path
       d="m 81.256717,162.10373 c -3.54753,0.60678 -7.18291,0.4692 -10.67435,-0.40322 -0.83996,-0.20955 -1.3208,-1.01 -1.08585,-1.72826 0.2353,-0.71896 1.01318,-1.1109 1.74978,-0.92816 3.12314,0.7807 6.3754,0.90347 9.54899,0.36089 0.74789,-0.127 1.49401,0.3228 1.67428,1.05763 0.17992,0.73343 -0.35913,1.49543 -1.21285,1.64112"
       style="fill:#85c5bd;fill-opacity:1;fill-rule:nonzero;stroke:none;stroke-width:0.03527778"
       id="path1012"
       inkscape:connector-curvature="0" />
    <path
       d="m 76.879097,162.47521 c -2.11737,0 -4.23192,-0.25894 -6.29673,-0.7747 -0.69568,-0.17357 -1.14512,-0.75248 -1.14547,-1.35396 0,-0.12489 0.0191,-0.25083 0.0596,-0.3743 0.1965,-0.60043 0.77117,-0.97296 1.3843,-0.97296 0.12136,0 0.24377,0.0148 0.36548,0.0448 1.25659,0.31397 2.53471,0.52176 3.81953,0.6223 0.58843,0.23177 1.18745,0.46355 1.79493,0.69532 -0.29422,0 -0.58879,-0.006 -0.8823,-0.0169 -1.6443,-0.0621 -3.28718,-0.29598 -4.8828,-0.69462 -0.0593,-0.0148 -0.11994,-0.0233 -0.18097,-0.0254 -0.0113,-2.6e-4 -0.0226,-7.9e-4 -0.0342,-7.9e-4 -0.36266,0 -0.68439,0.21907 -0.79058,0.54257 -0.0522,0.15981 -0.0318,0.33655 0.0579,0.49847 0.11536,0.20885 0.32879,0.36513 0.58596,0.42969 1.69545,0.42369 3.44135,0.67204 5.18866,0.73801 0.31679,0.012 0.63394,0.018 0.95144,0.018 1.13171,0 2.26554,-0.0759 3.38738,-0.22684 0.39863,0.14394 0.79939,0.28752 1.20261,0.43039 -0.0667,0.0204 -0.13581,0.037 -0.20708,0.0494 -1.44956,0.248 -2.91465,0.37148 -4.37762,0.37148"
       style="fill:#72a9a2;fill-opacity:1;fill-rule:nonzero;stroke:none;stroke-width:0.03527778"
       id="path1014"
       inkscape:connector-curvature="0" />
    <path
       d="m 75.922367,161.8328 c -1.74731,-0.066 -3.49321,-0.31432 -5.18866,-0.73801 -0.25717,-0.0646 -0.4706,-0.22084 -0.58596,-0.42968 -0.0896,-0.16193 -0.11007,-0.33867 -0.0579,-0.49848 0.10936,-0.33373 0.44838,-0.55633 0.82479,-0.54187 0.061,0.002 0.12171,0.0106 0.18098,0.0254 1.59561,0.39864 3.2385,0.63254 4.8828,0.69462 1.64394,0.0621 3.29988,-0.0469 4.92195,-0.32455 0.0593,-0.01 0.12065,-0.0138 0.18168,-0.0116 0.37606,0.0141 0.69744,0.26211 0.78105,0.6029 0.0402,0.16298 0.006,0.33796 -0.0956,0.49283 -0.13053,0.19932 -0.35525,0.33937 -0.6156,0.38347 -1.72332,0.29492 -3.48297,0.41098 -5.22957,0.34501"
       style="fill:#85c5bd;fill-opacity:1;fill-rule:nonzero;stroke:none;stroke-width:0.03527778"
       id="path1016"
       inkscape:connector-curvature="0" />
    <path
       d="m 162.55224,174.13875 c 0.0388,-0.13088 0.0811,-0.26176 0.11641,-0.39405 -0.0353,0.13229 -0.0741,0.26352 -0.11641,0.39405 v 0 m 0.42333,-1.62137 c 0.0847,-0.40887 0.15875,-0.82232 0.21519,-1.24072 0,-2.6e-4 0.004,-7.9e-4 0.004,-7.9e-4 0.0318,-0.22931 0.06,-0.46567 0.0811,-0.70591 0.3175,-0.0448 0.635,-0.09 0.95603,-0.13547 0.85372,-0.12206 1.44639,-0.91263 1.32644,-1.76636 0.11995,0.85373 -0.45861,1.6443 -1.31233,1.76636 -0.32456,0.0466 -0.635,0.0914 -0.95956,0.13723 -0.007,0.0487 0.0141,0.0981 0.007,0.14676 -0.0282,0.27093 -0.0635,0.54116 -0.0635,0.80857 v 2.6e-4 c 0,0.26847 -0.127,0.53411 -0.17992,0.79869 -0.0141,0.0639 -0.0529,0.12735 -0.0741,0.19121 m 2.58233,-3.84916 c -0.11289,-0.77223 -0.76905,-1.33139 -1.524,-1.34056 0.004,-2.6e-4 0.0106,-2.6e-4 0.0176,-2.6e-4 0.75847,0 1.39347,0.56197 1.50636,1.34091 m -2.24719,-1.2566 c -0.14464,-1.87819 -0.57503,-3.67594 -1.24884,-5.34881 0.67381,1.66722 1.12184,3.46145 1.31586,5.33929 -0.0247,0.003 -0.0459,0.006 -0.067,0.01 m -2.02495,-7.01534 c -0.84666,-1.59773 -1.92264,-3.05259 -3.19052,-4.31976 -0.19579,-0.19579 -0.39335,-0.38453 -0.59267,-0.56621 0.21273,0.19297 0.42404,0.3937 0.63289,0.60254 1.25589,1.2566 2.31422,2.6984 3.1503,4.28343"
       style="fill:#ffffff;fill-opacity:1;fill-rule:nonzero;stroke:none;stroke-width:0.03527778"
       id="path1018"
       inkscape:connector-curvature="0" />
    <path
       d="m 152.7182,174.35641 c -4.14549,0 -8.56226,-0.11712 -13.21787,-0.40146 7.62494,-0.64241 15.39945,-1.51165 23.69043,-2.67829 -0.0564,0.4184 -0.13052,0.83185 -0.21519,1.24072 -0.007,0.0134 -0.0106,0.0268 -0.0141,0.0402 -0.0423,0.19579 -0.0847,0.39053 -0.13406,0.58385 -0.0177,0.0755 -0.0353,0.15134 -0.0564,0.22613 -0.0318,0.12629 -0.067,0.25188 -0.10231,0.37712 -0.0353,0.13229 -0.0776,0.26317 -0.11641,0.39405 -3.0727,0.13547 -6.35706,0.21767 -9.83404,0.21767 m -35.12082,-2.88714 c -7.45244,-1.2446 -15.28199,-2.96863 -23.387763,-5.31107 -3.60539,-1.04211 -7.27569,-2.20945 -10.81264,-3.42794 0.10407,-0.11536 0.19932,-0.23883 0.28505,-0.36936 0.45437,-0.69215 0.59831,-1.50707 0.40499,-2.29553 -0.32633,-1.3282 -1.52648,-2.29235 -2.91854,-2.34491 -0.0399,-0.002 -0.0797,-0.002 -0.11994,-0.002 -0.1778,0 -0.35666,0.0152 -0.53411,0.0452 -1.19979,0.20532 -2.42005,0.30868 -3.63819,0.30868 -0.27058,0 -0.54152,-0.005 -0.81139,-0.0155 -1.48661,-0.0561 -2.9718,-0.2674 -4.41748,-0.62829 -0.21132,-0.0526 -0.42863,-0.0836 -0.64665,-0.0917 -0.0399,-0.002 -0.0797,-0.002 -0.11924,-0.002 -0.3563,0 -0.70344,0.0603 -1.02834,0.1725 -6.38352,-2.80105 -10.60309,-5.32906 -10.26266,-6.69078 12.90567,0.75953 26.4929,1.21955 40.695383,1.26224 0.75213,0.002 1.50037,0.004 2.24896,0.004 14.99764,0 29.31654,-0.45473 42.86744,-1.25236 1.14864,0 7.07637,0.12665 12.10028,4.68136 0.19931,0.18168 0.39687,0.37042 0.59266,0.56621 1.26789,1.26718 2.34386,2.72203 3.19053,4.31976 0.28575,0.5394 0.54327,1.09573 0.77611,1.66652 0.6738,1.67288 1.10419,3.47063 1.24883,5.34882 -12.1793,1.72861 -26.8672,3.47451 -45.71329,4.05765"
       style="fill:#ffc4b3;fill-opacity:1;fill-rule:nonzero;stroke:none;stroke-width:0.03527778"
       id="path1020"
       inkscape:connector-curvature="0" />
    <path
       d="m 163.19076,171.27666 c 0.0318,-0.23354 0.06,-0.47025 0.0847,-0.70661 v 0 c -0.0212,0.24024 -0.0494,0.4766 -0.0811,0.70591 0,0 -0.004,2.6e-4 -0.004,7.9e-4"
       style="fill:#e1e1e1;fill-opacity:1;fill-rule:nonzero;stroke:none;stroke-width:0.03527778"
       id="path1022"
       inkscape:connector-curvature="0" />
    <path
       d="m 139.50033,173.95495 c -1.37372,-0.084 -2.76931,-0.18239 -4.18359,-0.29669 8.99936,-0.68685 18.11266,-1.70109 27.95869,-3.08821 -0.0247,0.23636 -0.0529,0.47307 -0.0847,0.70661 -8.29098,1.16664 -16.06549,2.03588 -23.69043,2.67829"
       style="fill:#e1ae9f;fill-opacity:1;fill-rule:nonzero;stroke:none;stroke-width:0.03527778"
       id="path1024"
       inkscape:connector-curvature="0" />
    <path
       d="m 135.31674,173.65826 c -5.61269,-0.45367 -11.53619,-1.1564 -17.71932,-2.18898 18.84609,-0.58314 33.53399,-2.32904 45.71329,-4.05765 0.0212,-0.003 0.0423,-0.006 0.067,-0.01 0,0.004 0,0.008 0,0.0127 v -0.002 c 0.15169,-0.0233 0.28927,-0.0466 0.45155,-0.0699 0.0706,-0.01 0.13759,-0.0148 0.20461,-0.0155 0.75495,0.009 1.41111,0.56832 1.524,1.34055 v 0 0 c 0.11995,0.85373 -0.47272,1.6443 -1.32644,1.76636 -0.32103,0.0455 -0.63853,0.0907 -0.95603,0.13547 v 0 c -9.84603,1.38712 -18.95933,2.40136 -27.95869,3.08821"
       style="fill:#9acfc8;fill-opacity:1;fill-rule:nonzero;stroke:none;stroke-width:0.03527778"
       id="path1026"
       inkscape:connector-curvature="0" />
    <path
       d="m 83.397017,162.73027 c -0.64946,-0.22366 -1.29399,-0.44909 -1.93322,-0.67592 0.62865,-0.19227 1.0414,-0.73308 1.04034,-1.3081 0,-0.0942 -0.0113,-0.18909 -0.0346,-0.28364 -0.16016,-0.65158 -0.76447,-1.07915 -1.42098,-1.07915 -0.084,0 -0.16863,0.007 -0.2533,0.0215 -1.29716,0.2219 -2.60703,0.33232 -3.91619,0.33232 -0.60536,0 -1.21002,-0.0236 -1.81327,-0.0709 -1.84997,-0.72778 -3.60045,-1.45274 -5.21265,-2.16006 0.32491,-0.11218 0.67204,-0.17251 1.02835,-0.17251 0.0395,0 0.0794,8e-4 0.11924,0.002 0.21802,0.008 0.43533,0.0392 0.64664,0.0917 1.44568,0.36089 2.93088,0.57221 4.41748,0.6283 0.26988,0.0102 0.54081,0.0155 0.81139,0.0155 1.21814,0 2.4384,-0.10337 3.6382,-0.30868 0.17745,-0.03 0.35631,-0.0452 0.53411,-0.0452 0.0402,0 0.0801,7.9e-4 0.11994,0.002 1.39206,0.0526 2.59221,1.0167 2.91853,2.34491 0.19332,0.78846 0.0494,1.60338 -0.40499,2.29553 -0.0857,0.13052 -0.18097,0.254 -0.28504,0.36935"
       style="fill:#ee846f;fill-opacity:1;fill-rule:nonzero;stroke:none;stroke-width:0.03527778"
       id="path1028"
       inkscape:connector-curvature="0" />
    <path
       d="m 81.463797,162.05435 c -0.40322,-0.14288 -0.80398,-0.28646 -1.20262,-0.43039 0.29775,-0.0402 0.59479,-0.0854 0.89077,-0.13618 0.26035,-0.0441 0.48507,-0.18415 0.61559,-0.38347 0.1016,-0.15486 0.13582,-0.32984 0.0956,-0.49283 -0.0836,-0.34078 -0.40498,-0.58878 -0.78105,-0.60289 -0.0116,-2.7e-4 -0.0233,-8e-4 -0.0349,-8e-4 -0.0494,0 -0.0988,0.004 -0.14675,0.0124 -1.32715,0.22719 -2.67688,0.34149 -4.02449,0.34149 -0.005,0 -0.0102,0 -0.0152,0 -0.60748,-0.23177 -1.2065,-0.46355 -1.79493,-0.69532 0.60325,0.0473 1.20791,0.0709 1.81327,0.0709 1.30916,0 2.61903,-0.11043 3.91619,-0.33232 0.0847,-0.0145 0.16933,-0.0215 0.25329,-0.0215 0.65652,0 1.26083,0.42757 1.42099,1.07915 0.0233,0.0945 0.0346,0.18944 0.0346,0.28363 10e-4,0.57503 -0.41169,1.11584 -1.04034,1.3081"
       style="fill:#8ab8b2;fill-opacity:1;fill-rule:nonzero;stroke:none;stroke-width:0.03527778"
       id="path1030"
       inkscape:connector-curvature="0" />
    <path
       d="m 80.261177,161.62396 c -1.15746,-0.4184 -2.29411,-0.83997 -3.40042,-1.26224 0.005,0 0.01,0 0.0152,0 1.34761,0 2.69734,-0.1143 4.02449,-0.34149 0.048,-0.008 0.0974,-0.0124 0.14675,-0.0124 0.0116,0 0.0233,2.6e-4 0.0349,7.9e-4 0.37606,0.0141 0.69744,0.26212 0.78105,0.6029 0.0402,0.16298 0.006,0.33796 -0.0956,0.49283 -0.13053,0.19932 -0.35525,0.33937 -0.6156,0.38347 -0.29598,0.0508 -0.59302,0.096 -0.89076,0.13617"
       style="fill:#9acfc8;fill-opacity:1;fill-rule:nonzero;stroke:none;stroke-width:0.03527778"
       id="path1032"
       inkscape:connector-curvature="0" />
  </g>
</svg>
